{
    "id": {
        "name": "id",
        "type": "INT",
        "length": "11",
        "null": false,
        "auto_increment": true
    },
    "neighborhood_id": {
        "name": "neighborhood_id",
        "type": "INT",
        "length": "10",
        "null": false
    },
    "confirmed": {
        "name": "confirmed",
        "type": "DATE",
        "default": "NULL",
        "null": true
    },
    "name": {
        "name": "name",
        "type": "VARCHAR",
        "length": "200",
        "null": false
    },
    "json": {
        "name": "json",
        "type": "TEXT"
    }
}
